ETL for Medium Data
…
Citi Bike: query database

trips <- bikes %>%
  tbl("trips")

trips %>%
  group_by(Start_Station_ID) %>%
  summarize(num_trips = n()) %>%
  filter(num_trips >= 1) %>%
  arrange(desc(num_trips)) %>%
  collect()

## # A tibble: 332 x 2
##    Start_Station_ID num_trips
##               <int>     <dbl>
##  1              519     50316
##  2              521     49511
##  3              293     45391
##  4              497     45154
##  5              426     40046
##  6              435     37542
##  7              285     36074
##  8              499     33849
##  9              151     33776
## 10              444     33663
## # ... with 322 more rows
…
