ETL for Medium Data
…
Citi Bike: query database

trips <- bikes %>%
  tbl("trips")

trips %>%
  group_by(Start_Station_ID) %>%
  summarize(num_trips = n()) %>%
  filter(num_trips >= 1) %>%
  arrange(desc(num_trips)) %>%
  collect()

## # A tibble: 811 x 2
##    Start_Station_ID num_trips
##               <int>     <dbl>
##  1              519   162716.
##  2              497   112218.
##  3              402   108590.
##  4              435   107133.
##  5              426   105610.
##  6             3255    97083.
##  7              490    94872.
##  8              459    90718.
##  9              514    86833.
## 10              477    85082.
## # ... with 801 more rows
…
